PR12 - Data Wrangling
…
데이터에서 원하는 조건에 따라 행을 추출하는 함수

filter(데이터, 조건1 : 조건2) : 조건1 또는 조건2 둘중 한가지를
충족하는 데이터 추출

filter(데이터, 조건1 & 조건2) : 조건1과 조건2 모두 충족하는
데이터 추출

조건을 작성할때쉼표는 AND, |는 OR와
같음

filter(flights, month == 1 | day == 1) #37198row

## # A tibble: 37,198 × 19
##     year month   day dep_time sched_de…¹ dep_d…² arr_t…³ sched…⁴ arr_d…⁵ carrier
##    <int> <int> <int>    <int>      <int>   <dbl>   <int>   <int>   <dbl> <chr>  
##  1  2013     1     1      517        515       2     830     819      11 UA     
##  2  2013     1     1      533        529       4     850     830      20 UA     
##  3  2013     1     1      542        540       2     923     850      33 AA     
##  4  2013     1     1      544        545      -1    1004    1022     -18 B6     
##  5  2013     1     1      554        600      -6     812     837     -25 DL     
##  6  2013     1     1      554        558      -4     740     728      12 UA     
##  7  2013     1     1      555        600      -5     913     854      19 B6     
##  8  2013     1     1      557        600      -3     709     723     -14 EV     
##  9  2013     1     1      557        600      -3     838     846      -8 B6     
## 10  2013     1     1      558        600      -2     753     745       8 AA     
## # … with 37,188 more rows, 9 more variables: flight <int>, tailnum <chr>,
## #   origin <chr>, dest <chr>, air_time <dbl>, distance <dbl>, hour <dbl>,
## #   minute <dbl>, time_hour <dttm>, and abbreviated variable names
## #   ¹​sched_dep_time, ²​dep_delay, ³​arr_time, ⁴​sched_arr_time, ⁵​arr_delay

filter(flights, month == 1, day == 1) #842row

## # A tibble: 842 × 19
##     year month   day dep_time sched_de…¹ dep_d…² arr_t…³ sched…⁴ arr_d…⁵ carrier
##    <int> <int> <int>    <int>      <int>   <dbl>   <int>   <int>   <dbl> <chr>  
##  1  2013     1     1      517        515       2     830     819      11 UA     
##  2  2013     1     1      533        529       4     850     830      20 UA     
##  3  2013     1     1      542        540       2     923     850      33 AA     
##  4  2013     1     1      544        545      -1    1004    1022     -18 B6     
##  5  2013     1     1      554        600      -6     812     837     -25 DL     
##  6  2013     1     1      554        558      -4     740     728      12 UA     
##  7  2013     1     1      555        600      -5     913     854      19 B6     
##  8  2013     1     1      557        600      -3     709     723     -14 EV     
##  9  2013     1     1      557        600      -3     838     846      -8 B6     
## 10  2013     1     1      558        600      -2     753     745       8 AA     
## # … with 832 more rows, 9 more variables: flight <int>, tailnum <chr>,
## #   origin <chr>, dest <chr>, air_time <dbl>, distance <dbl>, hour <dbl>,
## #   minute <dbl>, time_hour <dttm>, and abbreviated variable names
## #   ¹​sched_dep_time, ²​dep_delay, ³​arr_time, ⁴​sched_arr_time, ⁵​arr_delay

filter(flights,
       month == 1,
       day == 1,
       year == 2013) #832row

## # A tibble: 842 × 19
##     year month   day dep_time sched_de…¹ dep_d…² arr_t…³ sched…⁴ arr_d…⁵ carrier
##    <int> <int> <int>    <int>      <int>   <dbl>   <int>   <int>   <dbl> <chr>  
##  1  2013     1     1      517        515       2     830     819      11 UA     
##  2  2013     1     1      533        529       4     850     830      20 UA     
##  3  2013     1     1      542        540       2     923     850      33 AA     
##  4  2013     1     1      544        545      -1    1004    1022     -18 B6     
##  5  2013     1     1      554        600      -6     812     837     -25 DL     
##  6  2013     1     1      554        558      -4     740     728      12 UA     
##  7  2013     1     1      555        600      -5     913     854      19 B6     
##  8  2013     1     1      557        600      -3     709     723     -14 EV     
##  9  2013     1     1      557        600      -3     838     846      -8 B6     
## 10  2013     1     1      558        600      -2     753     745       8 AA     
## # … with 832 more rows, 9 more variables: flight <int>, tailnum <chr>,
## #   origin <chr>, dest <chr>, air_time <dbl>, distance <dbl>, hour <dbl>,
## #   minute <dbl>, time_hour <dttm>, and abbreviated variable names
## #   ¹​sched_dep_time, ²​dep_delay, ³​arr_time, ⁴​sched_arr_time, ⁵​arr_delay

3.2 arrange() 함수

데이터를 원하는 조건에 따라 정렬해주는 함수

arrange(데이터, 정렬기준컬럼1, 정렬기준컬럼2, 정렬기준컬럼3)

내림차순으로 정렬시 desc함수 사용 arrange(데이터,
desc(정렬기준컬럼1))

arrange(flights, year, month, day) #ArrDelay, Month, Year 순으로 정렬

## # A tibble: 336,776 × 19
##     year month   day dep_time sched_de…¹ dep_d…² arr_t…³ sched…⁴ arr_d…⁵ carrier
##    <int> <int> <int>    <int>      <int>   <dbl>   <int>   <int>   <dbl> <chr>  
##  1  2013     1     1      517        515       2     830     819      11 UA     
##  2  2013     1     1      533        529       4     850     830      20 UA     
##  3  2013     1     1      542        540       2     923     850      33 AA     
##  4  2013     1     1      544        545      -1    1004    1022     -18 B6     
##  5  2013     1     1      554        600      -6     812     837     -25 DL     
##  6  2013     1     1      554        558      -4     740     728      12 UA     
##  7  2013     1     1      555        600      -5     913     854      19 B6     
##  8  2013     1     1      557        600      -3     709     723     -14 EV     
##  9  2013     1     1      557        600      -3     838     846      -8 B6     
## 10  2013     1     1      558        600      -2     753     745       8 AA     
## # … with 336,766 more rows, 9 more variables: flight <int>, tailnum <chr>,
## #   origin <chr>, dest <chr>, air_time <dbl>, distance <dbl>, hour <dbl>,
## #   minute <dbl>, time_hour <dttm>, and abbreviated variable names
## #   ¹​sched_dep_time, ²​dep_delay, ³​arr_time, ⁴​sched_arr_time, ⁵​arr_delay

arrange(flights, desc(month)) #Month컬럼기준으로 내림차순으로 정렬

## # A tibble: 336,776 × 19
##     year month   day dep_time sched_de…¹ dep_d…² arr_t…³ sched…⁴ arr_d…⁵ carrier
##    <int> <int> <int>    <int>      <int>   <dbl>   <int>   <int>   <dbl> <chr>  
##  1  2013    12     1       13       2359      14     446     445       1 B6     
##  2  2013    12     1       17       2359      18     443     437       6 B6     
##  3  2013    12     1      453        500      -7     636     651     -15 US     
##  4  2013    12     1      520        515       5     749     808     -19 UA     
##  5  2013    12     1      536        540      -4     845     850      -5 AA     
##  6  2013    12     1      540        550     -10    1005    1027     -22 B6     
##  7  2013    12     1      541        545      -4     734     755     -21 EV     
##  8  2013    12     1      546        545       1     826     835      -9 UA     
##  9  2013    12     1      549        600     -11     648     659     -11 US     
## 10  2013    12     1      550        600     -10     825     854     -29 B6     
## # … with 336,766 more rows, 9 more variables: flight <int>, tailnum <chr>,
## #   origin <chr>, dest <chr>, air_time <dbl>, distance <dbl>, hour <dbl>,
## #   minute <dbl>, time_hour <dttm>, and abbreviated variable names
## #   ¹​sched_dep_time, ²​dep_delay, ³​arr_time, ⁴​sched_arr_time, ⁵​arr_delay

3.3 select() 함수

select함수는 원하는 열(column)을 추출

select(데이터, 컬럼1, 컬럼2, 컬럼3)

select(데이터, 컬럼1: 컬럼3)

컬럼명을 변경할수 있음

select(flights, year, month, day)

## # A tibble: 336,776 × 3
##     year month   day
##    <int> <int> <int>
##  1  2013     1     1
##  2  2013     1     1
##  3  2013     1     1
##  4  2013     1     1
##  5  2013     1     1
##  6  2013     1     1
##  7  2013     1     1
##  8  2013     1     1
##  9  2013     1     1
## 10  2013     1     1
## # … with 336,766 more rows

select(flights, year:day)

## # A tibble: 336,776 × 3
##     year month   day
##    <int> <int> <int>
##  1  2013     1     1
##  2  2013     1     1
##  3  2013     1     1
##  4  2013     1     1
##  5  2013     1     1
##  6  2013     1     1
##  7  2013     1     1
##  8  2013     1     1
##  9  2013     1     1
## 10  2013     1     1
## # … with 336,766 more rows

select(flights, -(year:day))

## # A tibble: 336,776 × 16
##    dep_t…¹ sched…² dep_d…³ arr_t…⁴ sched…⁵ arr_d…⁶ carrier flight tailnum origin
##      <int>   <int>   <dbl>   <int>   <int>   <dbl> <chr>    <int> <chr>   <chr> 
##  1     517     515       2     830     819      11 UA        1545 N14228  EWR   
##  2     533     529       4     850     830      20 UA        1714 N24211  LGA   
##  3     542     540       2     923     850      33 AA        1141 N619AA  JFK   
##  4     544     545      -1    1004    1022     -18 B6         725 N804JB  JFK   
##  5     554     600      -6     812     837     -25 DL         461 N668DN  LGA   
##  6     554     558      -4     740     728      12 UA        1696 N39463  EWR   
##  7     555     600      -5     913     854      19 B6         507 N516JB  EWR   
##  8     557     600      -3     709     723     -14 EV        5708 N829AS  LGA   
##  9     557     600      -3     838     846      -8 B6          79 N593JB  JFK   
## 10     558     600      -2     753     745       8 AA         301 N3ALAA  LGA   
## # … with 336,766 more rows, 6 more variables: dest <chr>, air_time <dbl>,
## #   distance <dbl>, hour <dbl>, minute <dbl>, time_hour <dttm>, and abbreviated
## #   variable names ¹​dep_time, ²​sched_dep_time, ³​dep_delay, ⁴​arr_time,
## #   ⁵​sched_arr_time, ⁶​arr_delay

3.4 distinct() 함수

중복항목을 제외한 데이터를 확인 할 수 있음(unique함수와 동일)

distinct(데이터, 컬럼명)

distinct(select(flights, tailnum))

## # A tibble: 4,044 × 1
##    tailnum
##    <chr>  
##  1 N14228 
##  2 N24211 
##  3 N619AA 
##  4 N804JB 
##  5 N668DN 
##  6 N39463 
##  7 N516JB 
##  8 N829AS 
##  9 N593JB 
## 10 N3ALAA 
## # … with 4,034 more rows

distinct(select(flights, origin, dest))

## # A tibble: 224 × 2
##    origin dest 
##    <chr>  <chr>
##  1 EWR    IAH  
##  2 LGA    IAH  
##  3 JFK    MIA  
##  4 JFK    BQN  
##  5 LGA    ATL  
##  6 EWR    ORD  
##  7 EWR    FLL  
##  8 LGA    IAD  
##  9 JFK    MCO  
## 10 LGA    ORD  
## # … with 214 more rows

3.5 mutate() 함수

기존 데이터 프레임에 새로운 열을 추가해줌

데이터프레임 내의 변수들을 활용해 새로운 변수를 만들때 효과적임

새로 생성한 변수를 해당 함수내에서 바로 활용이 가능

#arr_delay - dep_delay값으로 gain컬럼 추가
mutate(flights, gain = arr_delay - dep_delay)

## # A tibble: 336,776 × 20
##     year month   day dep_time sched_de…¹ dep_d…² arr_t…³ sched…⁴ arr_d…⁵ carrier
##    <int> <int> <int>    <int>      <int>   <dbl>   <int>   <int>   <dbl> <chr>  
##  1  2013     1     1      517        515       2     830     819      11 UA     
##  2  2013     1     1      533        529       4     850     830      20 UA     
##  3  2013     1     1      542        540       2     923     850      33 AA     
##  4  2013     1     1      544        545      -1    1004    1022     -18 B6     
##  5  2013     1     1      554        600      -6     812     837     -25 DL     
##  6  2013     1     1      554        558      -4     740     728      12 UA     
##  7  2013     1     1      555        600      -5     913     854      19 B6     
##  8  2013     1     1      557        600      -3     709     723     -14 EV     
##  9  2013     1     1      557        600      -3     838     846      -8 B6     
## 10  2013     1     1      558        600      -2     753     745       8 AA     
## # … with 336,766 more rows, 10 more variables: flight <int>, tailnum <chr>,
## #   origin <chr>, dest <chr>, air_time <dbl>, distance <dbl>, hour <dbl>,
## #   minute <dbl>, time_hour <dttm>, gain <dbl>, and abbreviated variable names
## #   ¹​sched_dep_time, ²​dep_delay, ³​arr_time, ⁴​sched_arr_time, ⁵​arr_delay

#gain컬럼을 만드는 동시에 gain컬럼을 이용해 다른 변수를 생성가능
mutate(flights,
       gain = arr_delay - dep_delay,
       gain_per_hour = gain / (air_time / 60))

## # A tibble: 336,776 × 21
##     year month   day dep_time sched_de…¹ dep_d…² arr_t…³ sched…⁴ arr_d…⁵ carrier
##    <int> <int> <int>    <int>      <int>   <dbl>   <int>   <int>   <dbl> <chr>  
##  1  2013     1     1      517        515       2     830     819      11 UA     
##  2  2013     1     1      533        529       4     850     830      20 UA     
##  3  2013     1     1      542        540       2     923     850      33 AA     
##  4  2013     1     1      544        545      -1    1004    1022     -18 B6     
##  5  2013     1     1      554        600      -6     812     837     -25 DL     
##  6  2013     1     1      554        558      -4     740     728      12 UA     
##  7  2013     1     1      555        600      -5     913     854      19 B6     
##  8  2013     1     1      557        600      -3     709     723     -14 EV     
##  9  2013     1     1      557        600      -3     838     846      -8 B6     
## 10  2013     1     1      558        600      -2     753     745       8 AA     
## # … with 336,766 more rows, 11 more variables: flight <int>, tailnum <chr>,
## #   origin <chr>, dest <chr>, air_time <dbl>, distance <dbl>, hour <dbl>,
## #   minute <dbl>, time_hour <dttm>, gain <dbl>, gain_per_hour <dbl>, and
## #   abbreviated variable names ¹​sched_dep_time, ²​dep_delay, ³​arr_time,
## #   ⁴​sched_arr_time, ⁵​arr_delay
…
체인연산 사용하지 않을때

a1 = group_by(flights, year, month, day)
a2 = select(a1, year:day, arr_delay)
a3 = summarise(a2, arr = mean(arr_delay, na.rm = TRUE))

## `summarise()` has grouped output by 'year', 'month'. You can override using the
## `.groups` argument.

a4 = filter(a3, arr > 30)
a4

## # A tibble: 42 × 4
## # Groups:   year, month [11]
##     year month   day   arr
##    <int> <int> <int> <dbl>
##  1  2013     1    16  34.2
##  2  2013     1    31  32.6
##  3  2013     2    11  36.3
##  4  2013     2    27  31.3
##  5  2013     3     8  85.9
##  6  2013     3    18  41.3
##  7  2013     4    10  38.4
##  8  2013     4    12  36.0
##  9  2013     4    18  36.0
## 10  2013     4    19  47.9
## # … with 32 more rows

체인연산 사용했을때

flights %>%
  group_by(year, month, day) %>%
  select(arr_delay) %>%
  summarise(arr = mean(arr_delay, na.rm = TRUE)) %>%
  filter(arr > 30)

## Adding missing grouping variables: `year`, `month`, `day`
## `summarise()` has grouped output by 'year', 'month'. You can override using the
## `.groups` argument.

## # A tibble: 42 × 4
## # Groups:   year, month [11]
##     year month   day   arr
##    <int> <int> <int> <dbl>
##  1  2013     1    16  34.2
##  2  2013     1    31  32.6
##  3  2013     2    11  36.3
##  4  2013     2    27  31.3
##  5  2013     3     8  85.9
##  6  2013     3    18  41.3
##  7  2013     4    10  38.4
##  8  2013     4    12  36.0
##  9  2013     4    18  36.0
## 10  2013     4    19  47.9
## # … with 32 more rows
…
3.7. 예제

dplyr에서도 함께 쓰여 데이터를 그룹화하고 수치를 요약하는 등의 작업에
특화되어 있습니다.

#비행기별 비행회수, 비행거리평균, 연착시간평균 산출
flights %>%
  group_by(tailnum) %>%
  summarise(
    count = n(),
    dist = mean(distance, na.rm = TRUE),
    delay = mean(arr_delay, na.rm = TRUE)
  )

## # A tibble: 4,044 × 4
##    tailnum count  dist  delay
##    <chr>   <int> <dbl>  <dbl>
##  1 D942DN      4  854. 31.5  
##  2 N0EGMQ    371  676.  9.98 
##  3 N10156    153  758. 12.7  
##  4 N102UW     48  536.  2.94 
##  5 N103US     46  535. -6.93 
##  6 N104UW     47  535.  1.80 
##  7 N10575    289  520. 20.7  
##  8 N105UW     45  525. -0.267
##  9 N107US     41  529. -5.73 
## 10 N108UW     60  534. -1.25 
## # … with 4,034 more rows
…
read_csv("traffic(1).csv")

## New names:
## Rows: 500 Columns: 12
## ── Column specification
## ──────────────────────────────────────────────────────── Delimiter: "," chr
## (4): rpt.id, rpt.contents, info.tp, info.tit dbl (5): ...1, start.pos.x,
## start.pos.y, end.pos.x, end.pos.y date (2): occ.dtime, end.dtime time (1):
## reg.dtime
## ℹ Use `spec()` to retrieve the full column specification for this data. ℹ
## Specify the column types or set `show_col_types = FALSE` to quiet this message.
## • `` -> `...1`

## # A tibble: 500 × 12
##     ...1 rpt.id   rpt.co…¹ info.tp info.…² occ.dtime  reg.d…³ end.dtime  start…⁴
##    <dbl> <chr>    <chr>    <chr>   <chr>   <date>     <time>  <date>       <dbl>
##  1     1 01149328 서부간…  A4      단순정… 2014-06-15 17:17   2014-06-15    127.
##  2     2 01149327 동부간…  A4      단순정… 2014-06-15 17:16   2014-06-15    127.
##  3     3 01149326 북부간…  A4      단순정… 2014-06-15 17:16   2014-06-15    127.
##  4     4 01149325 올림픽…  A4      단순정… 2014-06-15 17:15   2014-06-15    127.
##  5     5 01149324 강변북…  A1      단순사… 2014-06-15 17:15   2014-06-15    127.
##  6     6 01149323 내부순…  A4      단순정… 2014-06-15 17:14   2014-06-15    127.
##  7     7 01149322 평택-시… A4      단순정… 2014-06-15 17:14   2014-06-15      0 
##  8     8 01149321 서울-춘… A4      단순정… 2014-06-15 17:13   2014-06-15    127.
##  9     9 01149320 천안-논… A4      단순정… 2014-06-15 17:13   2014-06-15    127.
## 10    10 01149319 영동고…  A4      단순정… 2014-06-15 17:12   2014-06-15    127.
## # … with 490 more rows, 3 more variables: start.pos.y <dbl>, end.pos.x <dbl>,
## #   end.pos.y <dbl>, and abbreviated variable names ¹​rpt.contents, ²​info.tit,
## #   ³​reg.dtime, ⁴​start.pos.x
…
